Lab 4a
…
Plotting Time Series Data

To calculate the number of counts each year for each genus, the data needs to be grouped and records counted within that group.

yearly_counts <- surveys_complete %>%
  count(year, genus)

yearly_counts

## # A tibble: 191 x 3
##     year genus               n
##    <dbl> <chr>           <int>
##  1  1977 Chaetodipus         3
##  2  1977 Dipodomys         222
##  3  1977 Onychomys           1
##  4  1977 Perognathus        22
##  5  1977 Peromyscus          2
##  6  1977 Reithrodontomys     2
##  7  1978 Chaetodipus        23
##  8  1978 Dipodomys         629
##  9  1978 Neotoma            23
## 10  1978 Onychomys          80
## # ... with 181 more rows
…
To split the line in each plot by the sex of each individual, the following steps are performed. Firstly, the data frame is grouped by sex in addition to year and genus.

yearly_sex_counts <- surveys_complete %>%
                     count(year, genus, sex)

yearly_sex_counts

## # A tibble: 372 x 4
##     year genus           sex       n
##    <dbl> <chr>           <chr> <int>
##  1  1977 Chaetodipus     F         3
##  2  1977 Dipodomys       F       103
##  3  1977 Dipodomys       M       119
##  4  1977 Onychomys       F         1
##  5  1977 Perognathus     F        14
##  6  1977 Perognathus     M         8
##  7  1977 Peromyscus      M         2
##  8  1977 Reithrodontomys F         1
##  9  1977 Reithrodontomys M         1
## 10  1978 Chaetodipus     F        10
## # ... with 362 more rows
…
